//Maya ASCII 2012 scene
//Name: rig_blendShape_cube01.ma
//Last modified: Tue, Feb 03, 2015 11:59:52 AM
//Codeset: UTF-8
requires maya "2012";
requires "SOuP" "Sep 22 2012";
currentUnit -l centimeter -a degree -t film;
fileInfo "application" "maya";
fileInfo "product" "Maya 2012";
fileInfo "version" "2012 x64";
fileInfo "cutIdentifier" "201201180206-821184";
fileInfo "osv" "Linux 2.6.32-358.el6.x86_64 #1 SMP Fri Feb 22 00:31:26 UTC 2013 x86_64";
createNode transform -s -n "persp";
	setAttr ".v" no;
	setAttr ".t" -type "double3" -2.1029969115685865 5.4641934845472147 5.0209843846129809 ;
	setAttr ".r" -type "double3" -52.538352729604775 -14.599999999999982 -1.6433422243376227e-15 ;
createNode camera -s -n "perspShape" -p "persp";
	setAttr -k off ".v" no;
	setAttr ".fl" 34.999999999999993;
	setAttr ".coi" 7.0089675411534627;
	setAttr ".imn" -type "string" "persp";
	setAttr ".den" -type "string" "persp_depth";
	setAttr ".man" -type "string" "persp_mask";
	setAttr ".hc" -type "string" "viewSet -p %camera";
createNode transform -s -n "top";
	setAttr ".v" no;
	setAttr ".t" -type "double3" 0 100.1 0 ;
	setAttr ".r" -type "double3" -89.999999999999986 0 0 ;
createNode camera -s -n "topShape" -p "top";
	setAttr -k off ".v" no;
	setAttr ".rnd" no;
	setAttr ".coi" 100.1;
	setAttr ".ow" 30;
	setAttr ".imn" -type "string" "top";
	setAttr ".den" -type "string" "top_depth";
	setAttr ".man" -type "string" "top_mask";
	setAttr ".hc" -type "string" "viewSet -t %camera";
	setAttr ".o" yes;
createNode transform -s -n "front";
	setAttr ".v" no;
	setAttr ".t" -type "double3" 0 0 100.1 ;
createNode camera -s -n "frontShape" -p "front";
	setAttr -k off ".v" no;
	setAttr ".rnd" no;
	setAttr ".coi" 100.1;
	setAttr ".ow" 30;
	setAttr ".imn" -type "string" "front";
	setAttr ".den" -type "string" "front_depth";
	setAttr ".man" -type "string" "front_mask";
	setAttr ".hc" -type "string" "viewSet -f %camera";
	setAttr ".o" yes;
createNode transform -s -n "side";
	setAttr ".v" no;
	setAttr ".t" -type "double3" 100.1 0 0 ;
	setAttr ".r" -type "double3" 0 89.999999999999986 0 ;
createNode camera -s -n "sideShape" -p "side";
	setAttr -k off ".v" no;
	setAttr ".rnd" no;
	setAttr ".coi" 100.1;
	setAttr ".ow" 30;
	setAttr ".imn" -type "string" "side";
	setAttr ".den" -type "string" "side_depth";
	setAttr ".man" -type "string" "side_mask";
	setAttr ".hc" -type "string" "viewSet -s %camera";
	setAttr ".o" yes;
createNode transform -n "pCube1";
createNode mesh -n "pCubeShape1" -p "pCube1";
	setAttr -k off ".v";
	setAttr -s 10 ".iog";
	setAttr -s 6 ".iog[0].og";
	setAttr ".vir" yes;
	setAttr ".vif" yes;
	setAttr -s 6 ".uvst";
	setAttr ".uvst[0].uvsn" -type "string" "map1";
	setAttr ".cuvs" -type "string" "map1";
	setAttr ".dcc" -type "string" "Ambient+Diffuse";
	setAttr -s 6 ".clst";
	setAttr ".covm[0]"  0 1 1;
	setAttr ".cdvm[0]"  0 1 1;
createNode mesh -n "pCubeShape1Orig" -p "pCube1";
	setAttr -k off ".v";
	setAttr ".io" yes;
	setAttr ".vir" yes;
	setAttr ".vif" yes;
	setAttr -s 3 ".uvst";
	setAttr ".uvst[0].uvsn" -type "string" "map1";
	setAttr -s 39 ".uvst[0].uvsp[0:38]" -type "float2" 0.375 0 0.5 0 0.625 0 0.375 0.125
		 0.5 0.125 0.625 0.125 0.375 0.25 0.5 0.25 0.625 0.25 0.375 0.375 0.5 0.375 0.625
		 0.375 0.375 0.5 0.5 0.5 0.625 0.5 0.375 0.625 0.5 0.625 0.625 0.625 0.375 0.75 0.5
		 0.75 0.625 0.75 0.375 0.875 0.5 0.875 0.625 0.875 0.375 1 0.5 1 0.625 1 0.875 0 0.75
		 0 0.875 0.125 0.75 0.125 0.875 0.25 0.75 0.25 0.125 0 0.25 0 0.125 0.125 0.25 0.125
		 0.125 0.25 0.25 0.25;
	setAttr ".cuvs" -type "string" "map1";
	setAttr ".dcc" -type "string" "Ambient+Diffuse";
	setAttr -s 3 ".clst";
	setAttr ".covm[0]"  0 1 1;
	setAttr ".cdvm[0]"  0 1 1;
	setAttr -s 26 ".vt[0:25]"  -0.5 -0.5 0.5 0 -0.5 0.5 0.5 -0.5 0.5 -0.5 0 0.5 0 0 0.5
		 0.5 0 0.5 -0.5 0.5 0.5 0 0.5 0.5 0.5 0.5 0.5 -0.5 0.5 0 0 0.5 0 0.5 0.5 0 -0.5 0.5 -0.5
		 0 0.5 -0.5 0.5 0.5 -0.5 -0.5 0 -0.5 0 0 -0.5 0.5 0 -0.5 -0.5 -0.5 -0.5 0 -0.5 -0.5
		 0.5 -0.5 -0.5 -0.5 -0.5 0 0 -0.5 0 0.5 -0.5 0 0.5 0 0 -0.5 0 0;
	setAttr -s 48 ".ed[0:47]"  0 1 0 1 2 0 3 4 1 4 5 1 6 7 0 7 8 0 9 10 1 10 11 1 12 13 0
		 13 14 0 15 16 1 16 17 1 18 19 0 19 20 0 21 22 1 22 23 1 0 3 0 1 4 1 2 5 0 3 6 0 4 7 1
		 5 8 0 6 9 0 7 10 1 8 11 0 9 12 0 10 13 1 11 14 0 12 15 0 13 16 1 14 17 0 15 18 0
		 16 19 1 17 20 0 18 21 0 19 22 1 20 23 0 21 0 0 22 1 1 23 2 0 17 24 1 24 5 1 23 24 1
		 24 11 1 15 25 1 25 3 1 21 25 1 25 9 1;
	setAttr -s 24 ".fc[0:23]" -type "polyFaces" 
		f 4 0 17 -3 -17
		mu 0 4 0 1 4 3
		f 4 1 18 -4 -18
		mu 0 4 1 2 5 4
		f 4 2 20 -5 -20
		mu 0 4 3 4 7 6
		f 4 3 21 -6 -21
		mu 0 4 4 5 8 7
		f 4 4 23 -7 -23
		mu 0 4 6 7 10 9
		f 4 5 24 -8 -24
		mu 0 4 7 8 11 10
		f 4 6 26 -9 -26
		mu 0 4 9 10 13 12
		f 4 7 27 -10 -27
		mu 0 4 10 11 14 13
		f 4 8 29 -11 -29
		mu 0 4 12 13 16 15
		f 4 9 30 -12 -30
		mu 0 4 13 14 17 16
		f 4 10 32 -13 -32
		mu 0 4 15 16 19 18
		f 4 11 33 -14 -33
		mu 0 4 16 17 20 19
		f 4 12 35 -15 -35
		mu 0 4 18 19 22 21
		f 4 13 36 -16 -36
		mu 0 4 19 20 23 22
		f 4 14 38 -1 -38
		mu 0 4 21 22 25 24
		f 4 15 39 -2 -39
		mu 0 4 22 23 26 25
		f 4 -37 -34 40 -43
		mu 0 4 28 27 29 30
		f 4 -40 42 41 -19
		mu 0 4 2 28 30 5
		f 4 -41 -31 -28 -44
		mu 0 4 30 29 31 32
		f 4 -42 43 -25 -22
		mu 0 4 5 30 32 8
		f 4 34 46 -45 31
		mu 0 4 33 34 36 35
		f 4 37 16 -46 -47
		mu 0 4 34 0 3 36
		f 4 44 47 25 28
		mu 0 4 35 36 38 37
		f 4 45 19 22 -48
		mu 0 4 36 3 6 38;
	setAttr ".cd" -type "dataPolyComponent" Index_Data Edge 0 ;
	setAttr ".cvd" -type "dataPolyComponent" Index_Data Vertex 0 ;
	setAttr ".hfd" -type "dataPolyComponent" Index_Data Face 0 ;
createNode transform -n "pCube2";
	setAttr ".t" -type "double3" -2.0611308756412834 0 0 ;
createNode mesh -n "pCubeShape2" -p "pCube2";
	setAttr -k off ".v";
	setAttr ".vir" yes;
	setAttr ".vif" yes;
	setAttr ".uvst[0].uvsn" -type "string" "map1";
	setAttr -s 39 ".uvst[0].uvsp[0:38]" -type "float2" 0.375 0 0.5 0 0.625 0 0.375 0.125
		 0.5 0.125 0.625 0.125 0.375 0.25 0.5 0.25 0.625 0.25 0.375 0.375 0.5 0.375 0.625
		 0.375 0.375 0.5 0.5 0.5 0.625 0.5 0.375 0.625 0.5 0.625 0.625 0.625 0.375 0.75 0.5
		 0.75 0.625 0.75 0.375 0.875 0.5 0.875 0.625 0.875 0.375 1 0.5 1 0.625 1 0.875 0 0.75
		 0 0.875 0.125 0.75 0.125 0.875 0.25 0.75 0.25 0.125 0 0.25 0 0.125 0.125 0.25 0.125
		 0.125 0.25 0.25 0.25;
	setAttr ".cuvs" -type "string" "map1";
	setAttr ".dcc" -type "string" "Ambient+Diffuse";
	setAttr ".covm[0]"  0 1 1;
	setAttr ".cdvm[0]"  0 1 1;
	setAttr -s 2 ".pt";
	setAttr ".pt[8]" -type "float3" 0.41802454 0.052561682 0.20646484 ;
	setAttr -s 26 ".vt[0:25]"  -0.5 -0.5 0.5 0 -0.5 0.5 0.5 -0.5 0.5 -0.5 0 0.5 0 0 0.5
		 0.5 0 0.5 -0.5 0.5 0.5 0 0.5 0.5 0.5 0.5 0.5 -0.5 0.5 0 0 0.5 0 0.5 0.5 0 -0.5 0.5 -0.5
		 0 0.5 -0.5 0.5 0.5 -0.5 -0.5 0 -0.5 0 0 -0.5 0.5 0 -0.5 -0.5 -0.5 -0.5 0 -0.5 -0.5
		 0.5 -0.5 -0.5 -0.5 -0.5 0 0 -0.5 0 0.5 -0.5 0 0.5 0 0 -0.5 0 0;
	setAttr -s 48 ".ed[0:47]"  0 1 0 1 2 0 3 4 1 4 5 1 6 7 0 7 8 0 9 10 1 10 11 1 12 13 0
		 13 14 0 15 16 1 16 17 1 18 19 0 19 20 0 21 22 1 22 23 1 0 3 0 1 4 1 2 5 0 3 6 0 4 7 1
		 5 8 0 6 9 0 7 10 1 8 11 0 9 12 0 10 13 1 11 14 0 12 15 0 13 16 1 14 17 0 15 18 0
		 16 19 1 17 20 0 18 21 0 19 22 1 20 23 0 21 0 0 22 1 1 23 2 0 17 24 1 24 5 1 23 24 1
		 24 11 1 15 25 1 25 3 1 21 25 1 25 9 1;
	setAttr -s 24 ".fc[0:23]" -type "polyFaces" 
		f 4 0 17 -3 -17
		mu 0 4 0 1 4 3
		f 4 1 18 -4 -18
		mu 0 4 1 2 5 4
		f 4 2 20 -5 -20
		mu 0 4 3 4 7 6
		f 4 3 21 -6 -21
		mu 0 4 4 5 8 7
		f 4 4 23 -7 -23
		mu 0 4 6 7 10 9
		f 4 5 24 -8 -24
		mu 0 4 7 8 11 10
		f 4 6 26 -9 -26
		mu 0 4 9 10 13 12
		f 4 7 27 -10 -27
		mu 0 4 10 11 14 13
		f 4 8 29 -11 -29
		mu 0 4 12 13 16 15
		f 4 9 30 -12 -30
		mu 0 4 13 14 17 16
		f 4 10 32 -13 -32
		mu 0 4 15 16 19 18
		f 4 11 33 -14 -33
		mu 0 4 16 17 20 19
		f 4 12 35 -15 -35
		mu 0 4 18 19 22 21
		f 4 13 36 -16 -36
		mu 0 4 19 20 23 22
		f 4 14 38 -1 -38
		mu 0 4 21 22 25 24
		f 4 15 39 -2 -39
		mu 0 4 22 23 26 25
		f 4 -37 -34 40 -43
		mu 0 4 28 27 29 30
		f 4 -40 42 41 -19
		mu 0 4 2 28 30 5
		f 4 -41 -31 -28 -44
		mu 0 4 30 29 31 32
		f 4 -42 43 -25 -22
		mu 0 4 5 30 32 8
		f 4 34 46 -45 31
		mu 0 4 33 34 36 35
		f 4 37 16 -46 -47
		mu 0 4 34 0 3 36
		f 4 44 47 25 28
		mu 0 4 35 36 38 37
		f 4 45 19 22 -48
		mu 0 4 36 3 6 38;
	setAttr ".cd" -type "dataPolyComponent" Index_Data Edge 0 ;
	setAttr ".cvd" -type "dataPolyComponent" Index_Data Vertex 0 ;
	setAttr ".hfd" -type "dataPolyComponent" Index_Data Face 0 ;
createNode transform -n "pCube3";
	setAttr ".t" -type "double3" -3.3804283423643575 0 0 ;
createNode mesh -n "pCubeShape3" -p "pCube3";
	setAttr -k off ".v";
	setAttr -s 2 ".iog";
	setAttr ".vir" yes;
	setAttr ".vif" yes;
	setAttr -s 2 ".uvst";
	setAttr ".uvst[0].uvsn" -type "string" "map1";
	setAttr -s 39 ".uvst[0].uvsp[0:38]" -type "float2" 0.375 0 0.5 0 0.625 0 0.375 0.125
		 0.5 0.125 0.625 0.125 0.375 0.25 0.5 0.25 0.625 0.25 0.375 0.375 0.5 0.375 0.625
		 0.375 0.375 0.5 0.5 0.5 0.625 0.5 0.375 0.625 0.5 0.625 0.625 0.625 0.375 0.75 0.5
		 0.75 0.625 0.75 0.375 0.875 0.5 0.875 0.625 0.875 0.375 1 0.5 1 0.625 1 0.875 0 0.75
		 0 0.875 0.125 0.75 0.125 0.875 0.25 0.75 0.25 0.125 0 0.25 0 0.125 0.125 0.25 0.125
		 0.125 0.25 0.25 0.25;
	setAttr ".cuvs" -type "string" "map1";
	setAttr ".dcc" -type "string" "Ambient+Diffuse";
	setAttr -s 2 ".clst";
	setAttr ".covm[0]"  0 1 1;
	setAttr ".cdvm[0]"  0 1 1;
	setAttr -s 2 ".pt";
	setAttr ".pt[6]" -type "float3" -0.40555552 0.12685789 -0.079517931 ;
	setAttr ".pt[8]" -type "float3" 0.42369032 -0.083419062 0.18468475 ;
	setAttr -s 26 ".vt[0:25]"  -0.5 -0.5 0.5 0 -0.5 0.5 0.5 -0.5 0.5 -0.5 0 0.5 0 0 0.5
		 0.5 0 0.5 -0.5 0.5 0.5 0 0.5 0.5 0.5 0.5 0.5 -0.5 0.5 0 0 0.5 0 0.5 0.5 0 -0.5 0.5 -0.5
		 0 0.5 -0.5 0.5 0.5 -0.5 -0.5 0 -0.5 0 0 -0.5 0.5 0 -0.5 -0.5 -0.5 -0.5 0 -0.5 -0.5
		 0.5 -0.5 -0.5 -0.5 -0.5 0 0 -0.5 0 0.5 -0.5 0 0.5 0 0 -0.5 0 0;
	setAttr -s 48 ".ed[0:47]"  0 1 0 1 2 0 3 4 1 4 5 1 6 7 0 7 8 0 9 10 1 10 11 1 12 13 0
		 13 14 0 15 16 1 16 17 1 18 19 0 19 20 0 21 22 1 22 23 1 0 3 0 1 4 1 2 5 0 3 6 0 4 7 1
		 5 8 0 6 9 0 7 10 1 8 11 0 9 12 0 10 13 1 11 14 0 12 15 0 13 16 1 14 17 0 15 18 0
		 16 19 1 17 20 0 18 21 0 19 22 1 20 23 0 21 0 0 22 1 1 23 2 0 17 24 1 24 5 1 23 24 1
		 24 11 1 15 25 1 25 3 1 21 25 1 25 9 1;
	setAttr -s 24 ".fc[0:23]" -type "polyFaces" 
		f 4 0 17 -3 -17
		mu 0 4 0 1 4 3
		f 4 1 18 -4 -18
		mu 0 4 1 2 5 4
		f 4 2 20 -5 -20
		mu 0 4 3 4 7 6
		f 4 3 21 -6 -21
		mu 0 4 4 5 8 7
		f 4 4 23 -7 -23
		mu 0 4 6 7 10 9
		f 4 5 24 -8 -24
		mu 0 4 7 8 11 10
		f 4 6 26 -9 -26
		mu 0 4 9 10 13 12
		f 4 7 27 -10 -27
		mu 0 4 10 11 14 13
		f 4 8 29 -11 -29
		mu 0 4 12 13 16 15
		f 4 9 30 -12 -30
		mu 0 4 13 14 17 16
		f 4 10 32 -13 -32
		mu 0 4 15 16 19 18
		f 4 11 33 -14 -33
		mu 0 4 16 17 20 19
		f 4 12 35 -15 -35
		mu 0 4 18 19 22 21
		f 4 13 36 -16 -36
		mu 0 4 19 20 23 22
		f 4 14 38 -1 -38
		mu 0 4 21 22 25 24
		f 4 15 39 -2 -39
		mu 0 4 22 23 26 25
		f 4 -37 -34 40 -43
		mu 0 4 28 27 29 30
		f 4 -40 42 41 -19
		mu 0 4 2 28 30 5
		f 4 -41 -31 -28 -44
		mu 0 4 30 29 31 32
		f 4 -42 43 -25 -22
		mu 0 4 5 30 32 8
		f 4 34 46 -45 31
		mu 0 4 33 34 36 35
		f 4 37 16 -46 -47
		mu 0 4 34 0 3 36
		f 4 44 47 25 28
		mu 0 4 35 36 38 37
		f 4 45 19 22 -48
		mu 0 4 36 3 6 38;
	setAttr ".cd" -type "dataPolyComponent" Index_Data Edge 0 ;
	setAttr ".cvd" -type "dataPolyComponent" Index_Data Vertex 0 ;
	setAttr ".hfd" -type "dataPolyComponent" Index_Data Face 0 ;
createNode lightLinker -s -n "lightLinker1";
	setAttr -s 2 ".lnk";
	setAttr -s 2 ".slnk";
createNode displayLayerManager -n "layerManager";
createNode displayLayer -n "defaultLayer";
createNode renderLayerManager -n "renderLayerManager";
createNode renderLayer -n "defaultRenderLayer";
	setAttr ".g" yes;
createNode blendShape -n "blendShape1";
	addAttr -ci true -h true -sn "aal" -ln "attributeAliasList" -dt "attributeAlias";
	setAttr -s 2 ".w[0:1]"  1 1;
	setAttr -s 2 ".it[0].itg";
	setAttr ".aal" -type "attributeAlias" {"pCube2","weight[0]","pCube3","weight[1]"
		} ;
createNode tweak -n "tweak1";
	setAttr -s 3 ".pl";
	setAttr -s 4 ".vl";
createNode objectSet -n "blendShape1Set";
	setAttr ".ihi" 0;
	setAttr ".vo" yes;
createNode groupId -n "blendShape1GroupId";
	setAttr ".ihi" 0;
createNode groupParts -n "blendShape1GroupParts";
	setAttr ".ihi" 0;
	setAttr ".ic" -type "componentList" 1 "vtx[*]";
createNode objectSet -n "tweakSet1";
	setAttr ".ihi" 0;
	setAttr ".vo" yes;
createNode groupId -n "groupId2";
	setAttr ".ihi" 0;
createNode groupParts -n "groupParts2";
	setAttr ".ihi" 0;
	setAttr ".ic" -type "componentList" 1 "vtx[*]";
createNode script -n "sceneConfigurationScriptNode";
	setAttr ".b" -type "string" "playbackOptions -min 1 -max 24 -ast 1 -aet 48 ";
	setAttr ".st" 6;
createNode peak -n "_peak";
	setAttr -s 6 ".wl[0].w";
	setAttr ".wl[0].w[0]" 0.31137737631797791;
	setAttr ".wl[0].w[3]" 0.31069999933242798;
	setAttr ".wl[0].w[6]" 0.31069999933242798;
	setAttr ".wl[0].w[9]" 0.31071668863296509;
	setAttr ".wl[0].w[21]" 0.3127286434173584;
	setAttr ".wl[0].w[25]" 0.45396625995635986;
createNode objectSet -n "_peakSet";
	setAttr ".ihi" 0;
	setAttr ".vo" yes;
createNode groupId -n "_peakGroupId";
	setAttr ".ihi" 0;
createNode groupParts -n "_peakGroupParts";
	setAttr ".ihi" 0;
	setAttr ".ic" -type "componentList" 6 "vtx[0]" "vtx[3]" "vtx[6]" "vtx[9]" "vtx[21]" "vtx[25]";
select -ne :time1;
	setAttr ".o" 1;
	setAttr ".unw" 1;
select -ne :renderPartition;
	setAttr -s 2 ".st";
select -ne :initialShadingGroup;
	setAttr -s 3 ".dsm";
	setAttr ".ro" yes;
select -ne :initialParticleSE;
	setAttr ".ro" yes;
select -ne :defaultShaderList1;
	setAttr -s 2 ".s";
select -ne :postProcessList1;
	setAttr -s 2 ".p";
select -ne :defaultRenderingList1;
select -ne :renderGlobalsList1;
select -ne :hardwareRenderGlobals;
	setAttr ".ctrs" 256;
	setAttr ".btrs" 512;
select -ne :defaultHardwareRenderGlobals;
	setAttr ".fn" -type "string" "im";
	setAttr ".res" -type "string" "ntsc_4d 646 485 1.333";
select -ne :ikSystem;
	setAttr -s 4 ".sol";
connectAttr "blendShape1GroupId.id" "pCubeShape1.iog.og[0].gid";
connectAttr "blendShape1Set.mwc" "pCubeShape1.iog.og[0].gco";
connectAttr "groupId2.id" "pCubeShape1.iog.og[1].gid";
connectAttr "tweakSet1.mwc" "pCubeShape1.iog.og[1].gco";
connectAttr "_peakGroupId.id" "pCubeShape1.iog.og[2].gid";
connectAttr "_peakSet.mwc" "pCubeShape1.iog.og[2].gco";
connectAttr "_peak.og[0]" "pCubeShape1.i";
connectAttr "tweak1.vl[0].vt[0]" "pCubeShape1.twl";
relationship "link" ":lightLinker1" ":initialShadingGroup.message" ":defaultLightSet.message";
relationship "link" ":lightLinker1" ":initialParticleSE.message" ":defaultLightSet.message";
relationship "shadowLink" ":lightLinker1" ":initialShadingGroup.message" ":defaultLightSet.message";
relationship "shadowLink" ":lightLinker1" ":initialParticleSE.message" ":defaultLightSet.message";
connectAttr "layerManager.dli[0]" "defaultLayer.id";
connectAttr "renderLayerManager.rlmi[0]" "defaultRenderLayer.rlid";
connectAttr "blendShape1GroupParts.og" "blendShape1.ip[0].ig";
connectAttr "blendShape1GroupId.id" "blendShape1.ip[0].gi";
connectAttr "pCubeShape2.w" "blendShape1.it[0].itg[0].iti[6000].igt";
connectAttr "pCubeShape3.w" "blendShape1.it[0].itg[1].iti[6000].igt";
connectAttr "groupParts2.og" "tweak1.ip[0].ig";
connectAttr "groupId2.id" "tweak1.ip[0].gi";
connectAttr "blendShape1GroupId.msg" "blendShape1Set.gn" -na;
connectAttr "pCubeShape1.iog.og[0]" "blendShape1Set.dsm" -na;
connectAttr "blendShape1.msg" "blendShape1Set.ub[0]";
connectAttr "tweak1.og[0]" "blendShape1GroupParts.ig";
connectAttr "blendShape1GroupId.id" "blendShape1GroupParts.gi";
connectAttr "groupId2.msg" "tweakSet1.gn" -na;
connectAttr "pCubeShape1.iog.og[1]" "tweakSet1.dsm" -na;
connectAttr "tweak1.msg" "tweakSet1.ub[0]";
connectAttr "pCubeShape1Orig.w" "groupParts2.ig";
connectAttr "groupId2.id" "groupParts2.gi";
connectAttr "_peakGroupParts.og" "_peak.ip[0].ig";
connectAttr "_peakGroupId.id" "_peak.ip[0].gi";
connectAttr "_peakGroupId.msg" "_peakSet.gn" -na;
connectAttr "pCubeShape1.iog.og[2]" "_peakSet.dsm" -na;
connectAttr "_peak.msg" "_peakSet.ub[0]";
connectAttr "blendShape1.og[0]" "_peakGroupParts.ig";
connectAttr "_peakGroupId.id" "_peakGroupParts.gi";
connectAttr "pCubeShape1.iog" ":initialShadingGroup.dsm" -na;
connectAttr "pCubeShape2.iog" ":initialShadingGroup.dsm" -na;
connectAttr "pCubeShape3.iog" ":initialShadingGroup.dsm" -na;
connectAttr "defaultRenderLayer.msg" ":defaultRenderingList1.r" -na;
// End of rig_blendShape_cube01.ma
