#+ dynamic_enum any E:/dev/autodesk/maya/mymagicbox/dynamic_enum
+ dynamic_enum any /home/user0/dev/mymagicbox/dynamic_enum

PATH +:= bin
XBMLANGPATH +:= icons
MAYA_RENDER_DESC_PATH +:= .
PYTHONPATH +:= scripts
MAYA_PLUG_IN_PATH +:= plug-ins
MAYA_SCRIPT_PATH  +:= scripts
