
+ MAYAVERSION:2014 PLATFORM:linux mtoa any /job/HOME/yaoys/solidangle/mtoa/2014
PATH +:= bin

+ MAYAVERSION:2014 PLATFORM:win64 mtoa any C:/solidangle/mtoadeploy/2014
PATH +:= bin


+ MAYAVERSION:2015 PLATFORM:linux mtoa any /job/HOME/yaoys/solidangle/mtoa/2015
PATH +:= bin

+ MAYAVERSION:2015 PLATFORM:win64 mtoa any C:/solidangle/mtoadeploy/2015
PATH +:= bin


+ MAYAVERSION:2016 PLATFORM:linux mtoa any /job/HOME/yaoys/solidangle/mtoa/2016
PATH +:= bin

+ MAYAVERSION:2016 PLATFORM:win64 mtoa any C:/solidangle/mtoadeploy/2016
PATH +:= bin
