+ node_template_py any /job/HOME/yaoys/dev/mybox/node_template_py

PATH +:= bin
XBMLANGPATH +:= icons
MAYA_RENDER_DESC_PATH +:= .
PYTHONPATH +:= scripts
MAYA_PLUG_IN_PATH +:= plug-ins
MAYA_SCRIPT_PATH  +:= scripts
