+ testProjection any E:/dev/mymagicbox/basetest/testProjection
PATH += E:/dev/mymagicbox/basetest/testProjection/bin
PATH +:= bin
XBMLANGPATH +:= icons
MAYA_RENDER_DESC_PATH +:= .
PYTHONPATH +:= scripts
MAYA_PLUG_IN_PATH +:= plug-ins
MAYA_SCRIPT_PATH  +:= scripts