+ version_control any /home/user0/dev/mymagicbox/version_control

PATH +:= bin
XBMLANGPATH +:= icons
MAYA_RENDER_DESC_PATH +:= .
PYTHONPATH +:= scripts
MAYA_PLUG_IN_PATH +:= plug-ins
MAYA_SCRIPT_PATH  +:= scripts
